<svg width="41" height="41" viewBox="0 0 41 41" fill="none" xmlns="http://www.w3.org/2000/svg">
<path d="M5.08252 15.2837L20.0825 3.61702L35.0825 15.2837V33.617C35.0825 34.5011 34.7313 35.3489 34.1062 35.974C33.4811 36.5992 32.6332 36.9504 31.7492 36.9504H8.41585C7.5318 36.9504 6.68395 36.5992 6.05883 35.974C5.43371 35.3489 5.08252 34.5011 5.08252 33.617V15.2837Z" stroke="white" stroke-width="2" stroke-linecap="round" stroke-linejoin="round"/>
<path d="M15.0825 36.9504V20.2837H25.0825V36.9504" stroke="white" stroke-width="2" stroke-linecap="round" stroke-linejoin="round"/>
</svg>
